Lab 3 Key
…
lasso_wf<-workflow() %>%
  add_model(lasso_md_tune) %>%
  add_recipe(lasso_rec)

set.seed(2020)
lasso_grid <- tune_grid(
  lasso_wf,
  resamples = folds,
  grid = lambda_grid
)

lasso_grid %>%
  collect_metrics()

# A tibble: 150 × 7
    penalty .metric     .estimator  mean     n std_err .config              
      <dbl> <chr>       <chr>      <dbl> <int>   <dbl> <chr>                
 1 1   e-10 accuracy    binary     0.780    10 0.0135  Preprocessor1_Model01
 2 1   e-10 brier_class binary     0.153    10 0.00683 Preprocessor1_Model01
 3 1   e-10 roc_auc     binary     0.833    10 0.0148  Preprocessor1_Model01
 4 1.60e-10 accuracy    binary     0.780    10 0.0135  Preprocessor1_Model02
 5 1.60e-10 brier_class binary     0.153    10 0.00683 Preprocessor1_Model02
 6 1.60e-10 roc_auc     binary     0.833    10 0.0148  Preprocessor1_Model02
 7 2.56e-10 accuracy    binary     0.780    10 0.0135  Preprocessor1_Model03
 8 2.56e-10 brier_class binary     0.153    10 0.00683 Preprocessor1_Model03
 9 2.56e-10 roc_auc     binary     0.833    10 0.0148  Preprocessor1_Model03
10 4.09e-10 accuracy    binary     0.780    10 0.0135  Preprocessor1_Model04
# ℹ 140 more rows
…
